{
  "name": "myAwesomeStack",
  "repositoryReferenceName": "refs/heads/master",
  "repositoryURL": "https://github.com/docker/awesome-compose",
  "tlsskipVerify": false,
  "autoUpdate": {
    "forcePullImage": false,
    "forceUpdate": false,
    "interval": "10m"
  },
  "composeFile": "wordpress-mysql/compose.yaml",
  "additionalFiles": [],
  "env": [
    {
      "name": "name",
      "value": "value"
    }
  ]
}

